%YAML 1.1
%TAG !u! tag:unity3d.com,2011:
--- !u!1045 &1
EditorBuildSettings:
  m_ObjectHideFlags: 0
  serializedVersion: 2
  m_Scenes:
  - enabled: 1
    path: Assets/Scenes/MainMenu.unity
    guid: a10f0f6126e27634590cbc4a56bc621a
  - enabled: 1
    path: Assets/Scenes/SampleScene.unity
    guid: 99c9720ab356a0642a771bea13969a05
  m_configObjects:
    Unity.XR.Oculus.Settings: {fileID: 11400000, guid: df4e4d16fefc4a94a8fd80584a0469f1,
      type: 2}
    UnityEditor.XR.ARCore.ARCoreSettings: {fileID: 11400000, guid: 0855cb7aff82d69418b61e03ff98b35b,
      type: 2}
    com.unity.xr.management.loader_settings: {fileID: 11400000, guid: 141891581e0b75648929b34419cb0a67,
      type: 2}
    com.unity.xr.openxr.settings4: {fileID: 11400000, guid: 1afcdda27cdaba84e9a81f82a0b1e832,
      type: 2}
    xr.sdk.mock-hmd.settings: {fileID: 11400000, guid: b22134ca3b4b459429be2d8703b4d99b,
      type: 2}
