%YAML 1.1
%TAG !u! tag:unity3d.com,2011:
--- !u!114 &-8796877222431648355
MonoBehaviour:
  m_ObjectHideFlags: 0
  m_CorrespondingSourceObject: {fileID: 0}
  m_PrefabInstance: {fileID: 0}
  m_PrefabAsset: {fileID: 0}
  m_GameObject: {fileID: 0}
  m_Enabled: 1
  m_EditorHideFlags: 0
  m_Script: {fileID: 11500000, guid: de7d7efcdadb9384ab1fa8caa4289815, type: 3}
  m_Name: 772c2222-f66b-455a-877a-14c4880062a2
  m_EditorClassIdentifier: 
  overrideActor: 1
  overrideSpeakerName: 
  isPlayerSpeaking: 0
  text: 'You wait some minutes hoping the storm goes away, feeling a combination
    of awe at nature''s power and a hint of fear as thunder roars and rain pours
    down. '
  voiceAudio: {fileID: 0}
  children:
  - 1f2a2a99-8639-4235-b6d9-52037ccef47e
  rectpos:
    serializedVersion: 2
    x: 0
    y: 0
    width: 200
    height: 210
  hasInput: 0
  onEnterAction: 
  onExitAction: 
  condition:
    and: []
  isRoot: 1
--- !u!114 &-4261010062636176054
MonoBehaviour:
  m_ObjectHideFlags: 0
  m_CorrespondingSourceObject: {fileID: 0}
  m_PrefabInstance: {fileID: 0}
  m_PrefabAsset: {fileID: 0}
  m_GameObject: {fileID: 0}
  m_Enabled: 1
  m_EditorHideFlags: 0
  m_Script: {fileID: 11500000, guid: de7d7efcdadb9384ab1fa8caa4289815, type: 3}
  m_Name: 1f2a2a99-8639-4235-b6d9-52037ccef47e
  m_EditorClassIdentifier: 
  overrideActor: 1
  overrideSpeakerName: 
  isPlayerSpeaking: 0
  text: But, as the storm keeps going, you need to continue your path.
  voiceAudio: {fileID: 8300000, guid: e10a4ee7bde13644299d57871c357140, type: 3}
  children: []
  rectpos:
    serializedVersion: 2
    x: 248
    y: 23
    width: 200
    height: 165
  hasInput: 0
  onEnterAction: 
  onExitAction: 
  condition:
    and: []
  isRoot: 0
--- !u!114 &11400000
MonoBehaviour:
  m_ObjectHideFlags: 0
  m_CorrespondingSourceObject: {fileID: 0}
  m_PrefabInstance: {fileID: 0}
  m_PrefabAsset: {fileID: 0}
  m_GameObject: {fileID: 0}
  m_Enabled: 1
  m_EditorHideFlags: 0
  m_Script: {fileID: 11500000, guid: 5eb0dd9ec529fa74db65a678102f675a, type: 3}
  m_Name: Act2Dialogue2
  m_EditorClassIdentifier: 
  nodes:
  - {fileID: -8796877222431648355}
  - {fileID: -4261010062636176054}
  newNodeOffset: {x: 250, y: 0}
  canvasSize: 4000
  actors:
  - {fileID: 11400000, guid: d9b22ad728ce59346aecdde97cf83763, type: 2}
