%YAML 1.1
%TAG !u! tag:unity3d.com,2011:
--- !u!21 &2100000
Material:
  serializedVersion: 6
  m_ObjectHideFlags: 0
  m_CorrespondingSourceObject: {fileID: 0}
  m_PrefabInstance: {fileID: 0}
  m_PrefabAsset: {fileID: 0}
  m_Name: Wolf Skin White 3x3
  m_Shader: {fileID: 4800000, guid: a5373e7a4216aa3409f9e01706d1f035, type: 3}
  m_ShaderKeywords: _EMISSION
  m_LightmapFlags: 1
  m_EnableInstancingVariants: 0
  m_DoubleSidedGI: 0
  m_CustomRenderQueue: -1
  stringTagMap: {}
  disabledShaderPasses: []
  m_SavedProperties:
    serializedVersion: 3
    m_TexEnvs:
    - _BumpMap:
        m_Texture: {fileID: 0}
        m_Scale: {x: 1, y: 1}
        m_Offset: {x: 0, y: 0}
    - _DetailAlbedoMap:
        m_Texture: {fileID: 0}
        m_Scale: {x: 1, y: 1}
        m_Offset: {x: 0, y: 0}
    - _DetailMask:
        m_Texture: {fileID: 0}
        m_Scale: {x: 1, y: 1}
        m_Offset: {x: 0, y: 0}
    - _DetailNormalMap:
        m_Texture: {fileID: 0}
        m_Scale: {x: 1, y: 1}
        m_Offset: {x: 0, y: 0}
    - _EmissionMap:
        m_Texture: {fileID: 2800000, guid: a67972407a3dafb45a7cd6b439a43815, type: 3}
        m_Scale: {x: 1, y: 1}
        m_Offset: {x: 0, y: 0}
    - _Gradient:
        m_Texture: {fileID: 2800000, guid: 0f424a347039ef447a763d3d4b4782b0, type: 3}
        m_Scale: {x: 1, y: 1}
        m_Offset: {x: 0, y: 0}
    - _MainTex:
        m_Texture: {fileID: 2800000, guid: a67972407a3dafb45a7cd6b439a43815, type: 3}
        m_Scale: {x: 1, y: 1}
        m_Offset: {x: 0, y: 0}
    - _MetallicGlossMap:
        m_Texture: {fileID: 0}
        m_Scale: {x: 1, y: 1}
        m_Offset: {x: 0, y: 0}
    - _OcclusionMap:
        m_Texture: {fileID: 0}
        m_Scale: {x: 1, y: 1}
        m_Offset: {x: 0, y: 0}
    - _ParallaxMap:
        m_Texture: {fileID: 0}
        m_Scale: {x: 1, y: 1}
        m_Offset: {x: 0, y: 0}
    - _texcoord:
        m_Texture: {fileID: 0}
        m_Scale: {x: 1, y: 1}
        m_Offset: {x: 0, y: 0}
    m_Ints: []
    m_Floats:
    - _BumpScale: 1
    - _Cutoff: 0.5
    - _DetailNormalMapScale: 1
    - _DstBlend: 0
    - _EmissionPower: 0
    - _GlossMapScale: 1
    - _Glossiness: 0
    - _GlossyReflections: 1
    - _GradientIntensity: 0.791
    - _GradientOffset: 0
    - _GradientPower: 1
    - _GradientScale: 1
    - _Metallic: 0.562
    - _Mode: 0
    - _OcclusionStrength: 1
    - _Parallax: 0.02
    - _SmoothnessTextureChannel: 0
    - _SpecularHighlights: 1
    - _SrcBlend: 1
    - _UVSec: 0
    - _ZWrite: 1
    - __dirty: 1
    m_Colors:
    - _Color: {r: 0.5790441, g: 0.6059838, b: 0.625, a: 0.259}
    - _Color1: {r: 0.8207547, g: 0.72828335, b: 0.63879496, a: 0}
    - _Color2: {r: 0.8207547, g: 0.72828335, b: 0.63879496, a: 0}
    - _Color3: {r: 0.8207547, g: 0.72828335, b: 0.63879496, a: 0}
    - _Color4: {r: 0.7075472, g: 0.52673435, b: 0.49061057, a: 1}
    - _Color5: {r: 0.92549026, g: 0.53333336, b: 0.4431373, a: 1}
    - _Color6: {r: 0.3773585, g: 0.3773585, b: 0.3773585, a: 0}
    - _Color7: {r: 0.8584906, g: 0.78641766, b: 0.6114721, a: 1}
    - _Color8: {r: 0.103773594, g: 0.08174618, b: 0.08174618, a: 1}
    - _Color9: {r: 0.8679245, g: 0.653252, b: 0, a: 0.7176471}
    - _EmissionColor: {r: 0.403, g: 0.403, b: 0.403, a: 1}
    - _GradientColor: {r: 0, g: 0, b: 0, a: 0}
    - _MRE1: {r: 0, g: 1, b: 0, a: 0}
    - _MRE2: {r: 0, g: 1, b: 0, a: 0}
    - _MRE3: {r: 0, g: 1, b: 0, a: 0}
    - _MRE4: {r: 0.50980395, g: 0.77254903, b: 0, a: 0}
    - _MRE5: {r: 0.21176471, g: 0.56078434, b: 0, a: 0}
    - _MRE6: {r: 0.23137255, g: 0.59607846, b: 0, a: 0}
    - _MRE7: {r: 0, g: 1, b: 0, a: 0}
    - _MRE8: {r: 0, g: 1, b: 0, a: 0}
    - _MRE9: {r: 0, g: 1, b: 1, a: 0}
  m_BuildTextureStacks: []
